{
	"ImportPath": "gitlab.com/weepi/event",
	"GoVersion": "go1.10",
	"GodepVersion": "v79",
	"Deps": [
		{
			"ImportPath": "github.com/Sirupsen/logrus",
			"Comment": "v1.0.5-16-g778f2e7",
			"Rev": "778f2e774c725116edbc3d039dc0dfc1cc62aae8"
		},
		{
			"ImportPath": "github.com/algolia/algoliasearch-client-go/algoliasearch",
			"Comment": "2.23.0-1-g9c969af",
			"Rev": "9c969af36d0525d8dba531f4e021d4a84d852769"
		},
		{
			"ImportPath": "github.com/asaskevich/govalidator",
			"Comment": "v9-1-g7d2e70e",
			"Rev": "7d2e70ef918f16bd6455529af38304d6d025c952"
		},
		{
			"ImportPath": "github.com/caarlos0/env",
			"Comment": "v3.2.0-8-g9b2b307",
			"Rev": "9b2b3076ca0cbc3cf9587a990befcd1306a8ae34"
		},
		{
			"ImportPath": "github.com/fatih/structs",
			"Comment": "v1.0-15-gebf56d3",
			"Rev": "ebf56d35bba727c68ac77f56f2fcf90b181851aa"
		},
		{
			"ImportPath": "github.com/go-ozzo/ozzo-validation",
			"Comment": "v3.3-4-g2c68ddd",
			"Rev": "2c68ddd4ffc17941d8e940cb1264f68e1d8f0394"
		},
		{
			"ImportPath": "github.com/go-ozzo/ozzo-validation/is",
			"Comment": "v3.3-4-g2c68ddd",
			"Rev": "2c68ddd4ffc17941d8e940cb1264f68e1d8f0394"
		},
		{
			"ImportPath": "github.com/golang/protobuf/jsonpb",
			"Comment": "v1.0.0-2-ge09c5db",
			"Rev": "e09c5db296004fbe3f74490e84dcd62c3c5ddb1b"
		},
		{
			"ImportPath": "github.com/golang/protobuf/proto",
			"Comment": "v1.0.0-2-ge09c5db",
			"Rev": "e09c5db296004fbe3f74490e84dcd62c3c5ddb1b"
		},
		{
			"ImportPath": "github.com/golang/protobuf/protoc-gen-go/descriptor",
			"Comment": "v1.0.0-2-ge09c5db",
			"Rev": "e09c5db296004fbe3f74490e84dcd62c3c5ddb1b"
		},
		{
			"ImportPath": "github.com/golang/protobuf/ptypes",
			"Comment": "v1.0.0-2-ge09c5db",
			"Rev": "e09c5db296004fbe3f74490e84dcd62c3c5ddb1b"
		},
		{
			"ImportPath": "github.com/golang/protobuf/ptypes/any",
			"Comment": "v1.0.0-2-ge09c5db",
			"Rev": "e09c5db296004fbe3f74490e84dcd62c3c5ddb1b"
		},
		{
			"ImportPath": "github.com/golang/protobuf/ptypes/duration",
			"Comment": "v1.0.0-2-ge09c5db",
			"Rev": "e09c5db296004fbe3f74490e84dcd62c3c5ddb1b"
		},
		{
			"ImportPath": "github.com/golang/protobuf/ptypes/empty",
			"Comment": "v1.0.0-2-ge09c5db",
			"Rev": "e09c5db296004fbe3f74490e84dcd62c3c5ddb1b"
		},
		{
			"ImportPath": "github.com/golang/protobuf/ptypes/struct",
			"Comment": "v1.0.0-2-ge09c5db",
			"Rev": "e09c5db296004fbe3f74490e84dcd62c3c5ddb1b"
		},
		{
			"ImportPath": "github.com/golang/protobuf/ptypes/timestamp",
			"Comment": "v1.0.0-2-ge09c5db",
			"Rev": "e09c5db296004fbe3f74490e84dcd62c3c5ddb1b"
		},
		{
			"ImportPath": "github.com/grpc-ecosystem/grpc-gateway/runtime",
			"Comment": "v1.2.2-23-gb2423da",
			"Rev": "b2423da79386df5bb9d02f5d3d5793042050a0d9"
		},
		{
			"ImportPath": "github.com/grpc-ecosystem/grpc-gateway/runtime/internal",
			"Comment": "v1.2.2-23-gb2423da",
			"Rev": "b2423da79386df5bb9d02f5d3d5793042050a0d9"
		},
		{
			"ImportPath": "github.com/grpc-ecosystem/grpc-gateway/utilities",
			"Comment": "v1.2.2-23-gb2423da",
			"Rev": "b2423da79386df5bb9d02f5d3d5793042050a0d9"
		},
		{
			"ImportPath": "github.com/jinzhu/gorm",
			"Comment": "v1.0-176-g0a51f6c",
			"Rev": "0a51f6cdc55d1650d9ed3b4c13026cfa9133b01e"
		},
		{
			"ImportPath": "github.com/jinzhu/gorm/dialects/postgres",
			"Comment": "v1.0-176-g0a51f6c",
			"Rev": "0a51f6cdc55d1650d9ed3b4c13026cfa9133b01e"
		},
		{
			"ImportPath": "github.com/jinzhu/inflection",
			"Rev": "1c35d901db3da928c72a72d8458480cc9ade058f"
		},
		{
			"ImportPath": "github.com/joho/godotenv",
			"Comment": "v1.2.0-5-g06e67b5",
			"Rev": "06e67b5ef3bef2e1a8696e1c04b94b44cbc5d9a5"
		},
		{
			"ImportPath": "github.com/lib/pq",
			"Comment": "go1.0-cutoff-175-ge422674",
			"Rev": "e42267488fe361b9dc034be7a6bffef5b195bceb"
		},
		{
			"ImportPath": "github.com/lib/pq/hstore",
			"Comment": "go1.0-cutoff-175-ge422674",
			"Rev": "e42267488fe361b9dc034be7a6bffef5b195bceb"
		},
		{
			"ImportPath": "github.com/lib/pq/oid",
			"Comment": "go1.0-cutoff-175-ge422674",
			"Rev": "e42267488fe361b9dc034be7a6bffef5b195bceb"
		},
		{
			"ImportPath": "github.com/nats-io/go-nats",
			"Comment": "v1.4.0-21-gf90dee2",
			"Rev": "f90dee257dfe286254c8d05ce76f98d7f83335b3"
		},
		{
			"ImportPath": "github.com/nats-io/go-nats/encoders/builtin",
			"Comment": "v1.4.0-21-gf90dee2",
			"Rev": "f90dee257dfe286254c8d05ce76f98d7f83335b3"
		},
		{
			"ImportPath": "github.com/nats-io/go-nats/util",
			"Comment": "v1.4.0-21-gf90dee2",
			"Rev": "f90dee257dfe286254c8d05ce76f98d7f83335b3"
		},
		{
			"ImportPath": "github.com/nats-io/nuid",
			"Comment": "v1.0.0-3-g33c6031",
			"Rev": "33c603157d6fd1b0ac2599bcc4a286b36479a06d"
		},
		{
			"ImportPath": "github.com/satori/go.uuid",
			"Comment": "v1.2.0-4-g36e9d2e",
			"Rev": "36e9d2ebbde5e3f13ab2e25625fd453271d6522e"
		},
		{
			"ImportPath": "gitlab.com/weepi/algolia/event",
			"Rev": "7904b0ab08b6849f8f03b59aaeeb89d6b5b6a6ca"
		},
		{
			"ImportPath": "gitlab.com/weepi/common/db",
			"Rev": "3db44aa578d98f36b69ad4e346974c8c65d1caff"
		},
		{
			"ImportPath": "gitlab.com/weepi/common/db/postgres/schemes",
			"Rev": "3db44aa578d98f36b69ad4e346974c8c65d1caff"
		},
		{
			"ImportPath": "gitlab.com/weepi/common/log",
			"Rev": "3db44aa578d98f36b69ad4e346974c8c65d1caff"
		},
		{
			"ImportPath": "gitlab.com/weepi/common/protobuf",
			"Rev": "3db44aa578d98f36b69ad4e346974c8c65d1caff"
		},
		{
			"ImportPath": "gitlab.com/weepi/common/utils",
			"Rev": "3db44aa578d98f36b69ad4e346974c8c65d1caff"
		},
		{
			"ImportPath": "go.uber.org/atomic",
			"Comment": "v1.3.1",
			"Rev": "8474b86a5a6f79c443ce4b2992817ff32cf208b8"
		},
		{
			"ImportPath": "go.uber.org/multierr",
			"Comment": "v1.1.0-2-gddea229",
			"Rev": "ddea229ff1dff9e6fe8a6c0344ac73b09e81fce5"
		},
		{
			"ImportPath": "go.uber.org/zap",
			"Comment": "v1.7.1-11-gf85c78b",
			"Rev": "f85c78b1dd998214c5f2138155b320a4a43fbe36"
		},
		{
			"ImportPath": "go.uber.org/zap/buffer",
			"Comment": "v1.7.1-11-gf85c78b",
			"Rev": "f85c78b1dd998214c5f2138155b320a4a43fbe36"
		},
		{
			"ImportPath": "go.uber.org/zap/internal/bufferpool",
			"Comment": "v1.7.1-11-gf85c78b",
			"Rev": "f85c78b1dd998214c5f2138155b320a4a43fbe36"
		},
		{
			"ImportPath": "go.uber.org/zap/internal/color",
			"Comment": "v1.7.1-11-gf85c78b",
			"Rev": "f85c78b1dd998214c5f2138155b320a4a43fbe36"
		},
		{
			"ImportPath": "go.uber.org/zap/internal/exit",
			"Comment": "v1.7.1-11-gf85c78b",
			"Rev": "f85c78b1dd998214c5f2138155b320a4a43fbe36"
		},
		{
			"ImportPath": "go.uber.org/zap/zapcore",
			"Comment": "v1.7.1-11-gf85c78b",
			"Rev": "f85c78b1dd998214c5f2138155b320a4a43fbe36"
		},
		{
			"ImportPath": "golang.org/x/crypto/ssh/terminal",
			"Rev": "b2aa35443fbc700ab74c586ae79b81c171851023"
		},
		{
			"ImportPath": "golang.org/x/net/context",
			"Rev": "640f4622ab692b87c2f3a94265e6f579fe38263d"
		},
		{
			"ImportPath": "golang.org/x/net/context/ctxhttp",
			"Rev": "640f4622ab692b87c2f3a94265e6f579fe38263d"
		},
		{
			"ImportPath": "golang.org/x/net/http/httpguts",
			"Rev": "640f4622ab692b87c2f3a94265e6f579fe38263d"
		},
		{
			"ImportPath": "golang.org/x/net/http2",
			"Rev": "640f4622ab692b87c2f3a94265e6f579fe38263d"
		},
		{
			"ImportPath": "golang.org/x/net/http2/hpack",
			"Rev": "640f4622ab692b87c2f3a94265e6f579fe38263d"
		},
		{
			"ImportPath": "golang.org/x/net/idna",
			"Rev": "640f4622ab692b87c2f3a94265e6f579fe38263d"
		},
		{
			"ImportPath": "golang.org/x/net/internal/timeseries",
			"Rev": "640f4622ab692b87c2f3a94265e6f579fe38263d"
		},
		{
			"ImportPath": "golang.org/x/net/lex/httplex",
			"Rev": "640f4622ab692b87c2f3a94265e6f579fe38263d"
		},
		{
			"ImportPath": "golang.org/x/net/trace",
			"Rev": "640f4622ab692b87c2f3a94265e6f579fe38263d"
		},
		{
			"ImportPath": "golang.org/x/sys/unix",
			"Rev": "3b87a42e500a6dc65dae1a55d0b641295971163e"
		},
		{
			"ImportPath": "golang.org/x/sys/windows",
			"Rev": "3b87a42e500a6dc65dae1a55d0b641295971163e"
		},
		{
			"ImportPath": "golang.org/x/text/secure/bidirule",
			"Comment": "v0.3.0-45-g2cb4393",
			"Rev": "2cb43934f0eece38629746959acc633cba083fe4"
		},
		{
			"ImportPath": "golang.org/x/text/transform",
			"Comment": "v0.3.0-45-g2cb4393",
			"Rev": "2cb43934f0eece38629746959acc633cba083fe4"
		},
		{
			"ImportPath": "golang.org/x/text/unicode/bidi",
			"Comment": "v0.3.0-45-g2cb4393",
			"Rev": "2cb43934f0eece38629746959acc633cba083fe4"
		},
		{
			"ImportPath": "golang.org/x/text/unicode/norm",
			"Comment": "v0.3.0-45-g2cb4393",
			"Rev": "2cb43934f0eece38629746959acc633cba083fe4"
		},
		{
			"ImportPath": "golang.org/x/time/rate",
			"Rev": "26559e0f760e39c24d730d3224364aef164ee23f"
		},
		{
			"ImportPath": "google.golang.org/genproto/googleapis/api/annotations",
			"Rev": "ce84044298496ef4b54b4a0a0909ba593cc60e30"
		},
		{
			"ImportPath": "google.golang.org/genproto/googleapis/rpc/status",
			"Rev": "ce84044298496ef4b54b4a0a0909ba593cc60e30"
		},
		{
			"ImportPath": "google.golang.org/grpc",
			"Comment": "v1.2.0-467-g30fb59a",
			"Rev": "30fb59a4304034ce78ff68e21bd25776b1d79488"
		},
		{
			"ImportPath": "google.golang.org/grpc/balancer",
			"Comment": "v1.2.0-467-g30fb59a",
			"Rev": "30fb59a4304034ce78ff68e21bd25776b1d79488"
		},
		{
			"ImportPath": "google.golang.org/grpc/balancer/base",
			"Comment": "v1.2.0-467-g30fb59a",
			"Rev": "30fb59a4304034ce78ff68e21bd25776b1d79488"
		},
		{
			"ImportPath": "google.golang.org/grpc/balancer/roundrobin",
			"Comment": "v1.2.0-467-g30fb59a",
			"Rev": "30fb59a4304034ce78ff68e21bd25776b1d79488"
		},
		{
			"ImportPath": "google.golang.org/grpc/codes",
			"Comment": "v1.2.0-467-g30fb59a",
			"Rev": "30fb59a4304034ce78ff68e21bd25776b1d79488"
		},
		{
			"ImportPath": "google.golang.org/grpc/connectivity",
			"Comment": "v1.2.0-467-g30fb59a",
			"Rev": "30fb59a4304034ce78ff68e21bd25776b1d79488"
		},
		{
			"ImportPath": "google.golang.org/grpc/credentials",
			"Comment": "v1.2.0-467-g30fb59a",
			"Rev": "30fb59a4304034ce78ff68e21bd25776b1d79488"
		},
		{
			"ImportPath": "google.golang.org/grpc/encoding",
			"Comment": "v1.2.0-467-g30fb59a",
			"Rev": "30fb59a4304034ce78ff68e21bd25776b1d79488"
		},
		{
			"ImportPath": "google.golang.org/grpc/encoding/proto",
			"Comment": "v1.2.0-467-g30fb59a",
			"Rev": "30fb59a4304034ce78ff68e21bd25776b1d79488"
		},
		{
			"ImportPath": "google.golang.org/grpc/grpclb/grpc_lb_v1/messages",
			"Comment": "v1.2.0-467-g30fb59a",
			"Rev": "30fb59a4304034ce78ff68e21bd25776b1d79488"
		},
		{
			"ImportPath": "google.golang.org/grpc/grpclog",
			"Comment": "v1.2.0-467-g30fb59a",
			"Rev": "30fb59a4304034ce78ff68e21bd25776b1d79488"
		},
		{
			"ImportPath": "google.golang.org/grpc/internal",
			"Comment": "v1.2.0-467-g30fb59a",
			"Rev": "30fb59a4304034ce78ff68e21bd25776b1d79488"
		},
		{
			"ImportPath": "google.golang.org/grpc/keepalive",
			"Comment": "v1.2.0-467-g30fb59a",
			"Rev": "30fb59a4304034ce78ff68e21bd25776b1d79488"
		},
		{
			"ImportPath": "google.golang.org/grpc/metadata",
			"Comment": "v1.2.0-467-g30fb59a",
			"Rev": "30fb59a4304034ce78ff68e21bd25776b1d79488"
		},
		{
			"ImportPath": "google.golang.org/grpc/naming",
			"Comment": "v1.2.0-467-g30fb59a",
			"Rev": "30fb59a4304034ce78ff68e21bd25776b1d79488"
		},
		{
			"ImportPath": "google.golang.org/grpc/peer",
			"Comment": "v1.2.0-467-g30fb59a",
			"Rev": "30fb59a4304034ce78ff68e21bd25776b1d79488"
		},
		{
			"ImportPath": "google.golang.org/grpc/resolver",
			"Comment": "v1.2.0-467-g30fb59a",
			"Rev": "30fb59a4304034ce78ff68e21bd25776b1d79488"
		},
		{
			"ImportPath": "google.golang.org/grpc/resolver/dns",
			"Comment": "v1.2.0-467-g30fb59a",
			"Rev": "30fb59a4304034ce78ff68e21bd25776b1d79488"
		},
		{
			"ImportPath": "google.golang.org/grpc/resolver/passthrough",
			"Comment": "v1.2.0-467-g30fb59a",
			"Rev": "30fb59a4304034ce78ff68e21bd25776b1d79488"
		},
		{
			"ImportPath": "google.golang.org/grpc/stats",
			"Comment": "v1.2.0-467-g30fb59a",
			"Rev": "30fb59a4304034ce78ff68e21bd25776b1d79488"
		},
		{
			"ImportPath": "google.golang.org/grpc/status",
			"Comment": "v1.2.0-467-g30fb59a",
			"Rev": "30fb59a4304034ce78ff68e21bd25776b1d79488"
		},
		{
			"ImportPath": "google.golang.org/grpc/tap",
			"Comment": "v1.2.0-467-g30fb59a",
			"Rev": "30fb59a4304034ce78ff68e21bd25776b1d79488"
		},
		{
			"ImportPath": "google.golang.org/grpc/transport",
			"Comment": "v1.2.0-467-g30fb59a",
			"Rev": "30fb59a4304034ce78ff68e21bd25776b1d79488"
		},
		{
			"ImportPath": "googlemaps.github.io/maps",
			"Rev": "2385cfa062e822f94534ce756249cdd05b77fe9c"
		},
		{
			"ImportPath": "googlemaps.github.io/maps/internal",
			"Rev": "2385cfa062e822f94534ce756249cdd05b77fe9c"
		}
	]
}
